{
    "links": {
        "pages": {
            "first": "base_url/account/keys?page=1",
            "last": "base_url/account/keys?page=3",
            "next": "base_url/account/keys?page=3",
            "prev": "base_url/account/keys?page=2"
        }
    },
    "meta": {
        "total": 43
    },
    "ssh_keys": [
        {
            "fingerprint": "e2:43:46:9d:9d:96:ad:c5:2f:a9:0a:6a:c6:2c:c4:e3",
            "id": 512209,
            "name": "Key 21",
            "public_key": "ssh-rsa AEXAMPLEYhAKMmHkTFQPLRfmdReneDzgzdVQ+ujuuQkVItvwPKRQswtXXpInaSfmUt+sRZhjRxVzSzHRZfdpSTpfcmnnrGeyBOQolMqknCowplqSswYF example-20"
        },
        {
            "fingerprint": "07:31:ae:46:7e:39:19:a3:1c:c3:d7:bc:f9:c9:bd:5e",
            "id": 512210,
            "name": "Key 22",
            "public_key": "ssh-rsa AEXAMPLER/fJReP+jLZBlaxpOTmpRgwPuHnxOAoSvZDk+WpLn/xyfAqURCeRFbNNemuam/fWrvMshNTm/CmlmAzZAxqwAaDPhmt/QtoSEboCsMG+oHKS example-21"
        },
        {
            "fingerprint": "9c:6d:74:ce:fc:73:04:45:89:7e:06:e9:04:90:dc:9f",
            "id": 512211,
            "name": "Key 23",
            "public_key": "ssh-rsa AEXAMPLEryyWoSZeyGlHVaIHH+kkqcYDOZ+odXBoFNlivpEyFhktsBMKtgW+BdifKiEFeROrIaNKHYqwUGfoJflObsmnnRpHlftDyLAJ+MvA/Hkclopk example-22"
        },
        {
            "fingerprint": "55:b5:4b:96:4b:ac:ab:be:d2:50:59:47:84:24:d3:71",
            "id": 512212,
            "name": "Key 24",
            "public_key": "ssh-rsa AEXAMPLEjYQhRjFYJwaUilMN+jFHpVZCiXlzmGNjpeFBRIrSpNdAMzaoiLlEotPzVBCXfLKPPNuxMmWJHwuPrgDSPgnAZA+IQmoBGFxDcrBuA++oBJSw example-23"
        },
        {
            "fingerprint": "3d:84:4f:50:4c:7b:d7:d0:b0:bc:46:fc:44:17:04:d1",
            "id": 512213,
            "name": "Key 25",
            "public_key": "ssh-rsa AEXAMPLETPCMEcaDyGLqpaPBHU/XoyUfXVortgTEvNucrOKuLbmVvmmBxulgvEpHYYTcrIsVvIyYpoZZsmzNmmZTLOlcgEDuUlLFmw+UghkIsThN/cwl example-24"
        },
        {
            "fingerprint": "fe:2c:56:fa:0e:27:fa:f4:40:36:4b:b7:d2:8e:c9:f0",
            "id": 512214,
            "name": "Key 26",
            "public_key": "ssh-rsa AEXAMPLEHDqKkcePRXEMcAhZJqRiTbjgAuIriiaMbsPkNRbgbfU/J/JhBNF+LhKyiX/OwwQpIVvkMDvfFiuCpRGeqicUTwVIeuJaGrZPktvSQVFHZEgK example-25"
        },
        {
            "fingerprint": "b7:83:dc:4c:50:f6:72:30:a1:8c:3d:0e:b7:7c:89:3a",
            "id": 512215,
            "name": "Key 27",
            "public_key": "ssh-rsa AEXAMPLEjNWylnYjIAXoMrQD+MNfnloQJQHo/EybtEADUx/uHulpEulK+aDeMXNKDwlkCqFlhcXVUy+aQkFBIgxGshdaRjEiw/FZyYUd/hGXtxtJGson example-26"
        },
        {
            "fingerprint": "e9:fa:d6:8b:d7:1d:4c:97:38:80:c6:f9:1b:f7:c6:56",
            "id": 512216,
            "name": "Key 28",
            "public_key": "ssh-rsa AEXAMPLEkJCAZuIJMtF/MIRCuvoVnP/BTFbKfZ+RjdVSmOOezlVIRdXkm/IuBHXgqCwIgNcXIKT+AGvcRgwyPePLPxNYAEfcBujCeqigeDNZRTLbJn+M example-27"
        },
        {
            "fingerprint": "8b:f2:71:63:ee:8f:3c:a5:e9:1b:11:e4:4b:ce:92:a9",
            "id": 512217,
            "name": "Key 29",
            "public_key": "ssh-rsa AEXAMPLEuu+RmnSr+kLNeUlaBJdSldnLGFCu+/hVYjhIDHMWD/Rw/EKrmVslkcuEXTPknrENctXubZOalsQWPasdfdRSVwuBfqlhBGdnxgJnwzeEHQLR example-28"
        },
        {
            "fingerprint": "e7:c7:8c:0a:8d:0e:22:a6:28:e0:07:92:bc:30:49:df",
            "id": 512218,
            "name": "Key 30",
            "public_key": "ssh-rsa AEXAMPLEcIRmvBJvK+dZLjxjLSoRk/McVGFXFKpIdKWsrW/DPzipHMmRzLJvYQCIlAdeXIjGxLYsAHrZjCirx/SFkpOeTibbXBihCSgEmnBcGoDjYOXx example-29"
        },
        {
            "fingerprint": "05:67:21:56:29:40:c9:44:f9:23:c7:fa:42:67:ab:12",
            "id": 512219,
            "name": "Key 31",
            "public_key": "ssh-rsa AEXAMPLERaTaFoupJHKcstGMCnetgqqwjLiLSTlZvfivQCgpXMKAVqlCkDRbEFrtnZPZOFefPdHcvmxukSJiTSrdnOkmmGOakfbuTghNOWsxgIxaIbBB example-30"
        },
        {
            "fingerprint": "5b:71:3a:f7:7c:6a:ea:b4:3e:f2:5a:3d:f9:c7:74:80",
            "id": 512220,
            "name": "Key 32",
            "public_key": "ssh-rsa AEXAMPLEJjvjvNfgKDGxSKwvtplTqRUiUhpDqhLOdlQQyQL/nHYAi+YqweEYOISHXYNruUPuQxLErltIyTzSNbDvljvIRbeRFBCwzFqahNw+Lev/MbkJ example-31"
        },
        {
            "fingerprint": "c1:be:f0:1f:9f:8b:9b:2a:7c:7b:00:44:25:4b:37:19",
            "id": 512221,
            "name": "Key 33",
            "public_key": "ssh-rsa AEXAMPLESFRrAkmAelZexsAuzYALfSbNL+EQDQyifsMsudiGzSCfmRtquaOhXjrMuOXzXOKVHN/gHPKigbHmHazaakFtelsGBEiAJHWQZdjDVdkGwFSP example-32"
        },
        {
            "fingerprint": "0a:be:70:5c:d3:56:f9:9c:f2:a7:5c:80:d8:6e:95:99",
            "id": 512222,
            "name": "Key 34",
            "public_key": "ssh-rsa AEXAMPLEqUUPRjIQDoqdMaKabgLIcFNzirrfbVfBNjcNhmSHZHEJGeIx+OthpPCFneaWUAxMrmeyRRdevqPWWPbmlvwe/DguqOVbZN+VyQtmZpuwSfAD example-33"
        },
        {
            "fingerprint": "b8:36:66:f1:13:10:a2:82:bd:da:3c:75:79:29:08:5b",
            "id": 512223,
            "name": "Key 35",
            "public_key": "ssh-rsa AEXAMPLEckfeYoZKqmpjML+KqWInCGFkQUJyfqhtUNwibdnHuNXEgmqSiuCWNHqRLuLREdtecuCRjKDtfMiC+foMXrQxPTLHnbqbrcDyqKuKlwTgaNSJ example-34"
        },
        {
            "fingerprint": "fd:dc:a4:ba:85:6b:78:a7:24:dd:b2:c1:0e:bd:c1:b8",
            "id": 512224,
            "name": "Key 36",
            "public_key": "ssh-rsa AEXAMPLEKVkcfiFVZZf/WSrLjmIjiNhfipvZCPD+/GmAWqvmOSdpGOMLQyjrIGritN+LbrBLAYbTMxhPRfAIPGDWIYqIUeXKiTmqpg/PvVhSXpFlWQAs example-35"
        },
        {
            "fingerprint": "a4:8d:f9:a3:fb:80:2e:e9:ad:77:9c:65:04:f4:94:6a",
            "id": 512225,
            "name": "Key 37",
            "public_key": "ssh-rsa AEXAMPLEAbDpjJRlmhTta/px/bCj+VDQoiVJcCKqLUDySMBuTAPMweMcJghzOboipRfQYiJYSKbvnoIsUdLtLyGAiaWDRdKJomeVBFIzsyLFWgYafdZe example-36"
        },
        {
            "fingerprint": "d7:3a:2c:0d:f2:e4:bc:7f:af:ea:f8:b3:4b:e9:c2:a9",
            "id": 512226,
            "name": "Key 38",
            "public_key": "ssh-rsa AEXAMPLEbeeFGwRSPdlndJlLzbUJMm+WeZ/JObljWtasEZlPnAdpgBSfHfgOhFXqXWVpbPhNGtaRirveYN+EGzoNAaWeqDGVyWudwLupidRkTpcHGCuG example-37"
        },
        {
            "fingerprint": "4a:35:01:51:35:b9:57:f8:5f:23:c7:e6:34:0c:55:20",
            "id": 512227,
            "name": "Key 39",
            "public_key": "ssh-rsa AEXAMPLEzLDJcfdSXJBXgRRqVmbXbsYOeDblojsqHeRpfMubjidxdvFxjQguQNFYzNdAZWXxhGKbvhlTJMxdXUqVPbJWVMUgbyloUUQGdVXmbsZraGy/ example-38"
        },
        {
            "fingerprint": "52:bc:21:85:d1:b0:7c:f3:1c:35:54:f9:7e:62:f4:6b",
            "id": 512228,
            "name": "Key 40",
            "public_key": "ssh-rsa AEXAMPLEcHumg+LtxwHBIY/gf/h/IoeHAaOmwsrqlIqfLu/wtxxn/R+hPteTToVDxinTdctXdtURJMQlEn+ePdvfXvLzIYeKA+uc/Svzgk+RtTCXGgld example-39"
        }
    ]
}