{
    "links": {
        "pages": {
            "last": "base_url/account/keys?page=3",
            "next": "base_url/account/keys?page=2"
        }
    },
    "meta": {
        "total": 43
    },
    "ssh_keys": [
        {
            "fingerprint": "36:ae:3d:75:31:1f:a3:b1:a6:48:47:18:d5:42:30:2a",
            "id": 512189,
            "name": "Key 1",
            "public_key": "ssh-rsa AEXAMPLEcmyr+L//GYSSBDLqEjSxJftVeeQfWDBmyeUDPrTxZGaLfAlIOruogQgyFRcOmuzJuGhyK+vUpmPXuCD+BHBXSwtOKteN+vMOCMftnW+yKYMU example-0"
        },
        {
            "fingerprint": "73:d0:0e:84:0c:a9:2c:84:54:71:90:f9:83:bc:af:a9",
            "id": 512190,
            "name": "Key 2",
            "public_key": "ssh-rsa AEXAMPLEhsJhuUhntOsJgBTwjgfQxtUipGUvJkuIquMpMI+nvJAOFsKAnJZppqcrylJL+FQQBsrYzXZSKFskgUf+lWzXCcqBbmXvwITxavKyWjL+sLAd example-1"
        },
        {
            "fingerprint": "e8:5e:39:41:7b:f2:f0:9e:17:2a:1f:15:b7:dc:ad:3a",
            "id": 512191,
            "name": "Key 3",
            "public_key": "ssh-rsa AEXAMPLEZlHqsUmoF/tbsWLfbYqoiBcGflHESjKezPra/PCKHxxVgRYBBAkBwReVzeduwTormAoHvtrZNCwGVSyFYSL+sRBQIpvbDOqnjtGTcazAoxHh example-2"
        },
        {
            "fingerprint": "29:c3:cf:86:81:54:f1:6b:17:d0:cf:bc:d8:41:48:e1",
            "id": 512192,
            "name": "Key 4",
            "public_key": "ssh-rsa AEXAMPLEEzqdsqJpKluqpjBFqveCwOqrOVzw/SozZOoEdqErEWaKhKfyz+zBQomVTRYuAZIWABnEH/QmPIZFY/kikHvpxjBAzDhouwCqilAIXLqyHXNp example-3"
        },
        {
            "fingerprint": "53:39:06:0a:9c:9b:2a:e7:4b:32:2e:6d:5c:4a:22:6e",
            "id": 512193,
            "name": "Key 5",
            "public_key": "ssh-rsa AEXAMPLEKqdpkPFaWFPdYvdQNGwSAZNXtWoCOrwIZ/KiZnUdGsClC+VigfSkzVP/oJUzMdgsuzd+KupmDgoeaXtqsGHvBuzMpjCZkJpeIaHmvnNDIDaV example-4"
        },
        {
            "fingerprint": "7b:d8:09:97:7d:69:21:40:62:3b:88:81:cb:f1:21:09",
            "id": 512194,
            "name": "Key 6",
            "public_key": "ssh-rsa AEXAMPLEUXKJqPItjoaggIDFctJHTE/QjurmPDhwPRhJIbXi+zznFl/rEBqKia+IFaPQfZLRbmxQzKVloQ+qOWPynFxLLcddtbJebcHUHfR/hYZPyfw/ example-5"
        },
        {
            "fingerprint": "b4:4b:5d:9d:bd:b8:cc:b4:b6:da:b9:9e:84:d2:21:e5",
            "id": 512195,
            "name": "Key 7",
            "public_key": "ssh-rsa AEXAMPLExhbmEsknUuYbwJVwGlTieMuEAgFkKIHzJoPwggadXTPiMoynGPckqlRgmmemTIFDEqBGEJYmFfgwTAlGwmsog/saTyMe+vxNkWqrcGuGNOgf example-6"
        },
        {
            "fingerprint": "11:41:0b:12:60:82:5a:1a:21:2a:2b:14:b2:0b:a2:80",
            "id": 512196,
            "name": "Key 8",
            "public_key": "ssh-rsa AEXAMPLEqhjPVhkZHEkPSuSBCzZ/GTEAchFQIpfrzcQxdTLqfdSsCPdIMWVCHXsVgIsYQUSsBidNCKkGgpgmLdikNLK/qqW+sQYD/KaZQklvPSHFvVyN example-7"
        },
        {
            "fingerprint": "8c:1d:07:86:4a:a6:97:a1:87:44:49:ca:71:11:2c:f8",
            "id": 512197,
            "name": "Key 9",
            "public_key": "ssh-rsa AEXAMPLEHBiqkkLBYrvLNR+bz+KSRIslihofGYGOHNafNacOwgUCylTlhFB/LDAFFnhvaoAOxzfewbY/WkfMeFnnTNNtVpBIqw+cdoppwnwpeRkGKFmn example-8"
        },
        {
            "fingerprint": "e6:18:07:e2:c8:0b:5a:9a:8c:c5:5c:1e:f3:90:06:2a",
            "id": 512198,
            "name": "Key 10",
            "public_key": "ssh-rsa AEXAMPLEGslHalQlljAxzzylJGpXqT+mRdgHv//KqjRlZQEiajjNSyujwhbXKNciuOvhNSUkwAniGOQPGtTSiwKyipeHfBcsbvR+Hypm+VhkwtBldmdJ example-9"
        },
        {
            "fingerprint": "49:5a:42:87:ce:4f:55:05:ac:b7:21:a2:b8:5a:6a:a2",
            "id": 512199,
            "name": "Key 11",
            "public_key": "ssh-rsa AEXAMPLExPpi+szNKGWIoGbidlPNbziTYVRBaRivJDYOKQWSvvLVNseRBT+Uqo+pfZUuRXdNHsFLJahSH/+OMIfAUoCMjyQTOFs+OqIlYFMqiQaHqlid example-10"
        },
        {
            "fingerprint": "03:e3:75:fb:29:5c:93:1f:9c:14:b7:27:78:8d:13:92",
            "id": 512200,
            "name": "Key 12",
            "public_key": "ssh-rsa AEXAMPLEnk/SiDpxtPCeJkmhqrrZNtYgBZo+CGycjTlJFjI+thz+ZzUFPQvnumotBxmGjlemqCxsjDxgMEfPvBbysbpPYLzdOCVJfryEOpYpOhWJDwcx example-11"
        },
        {
            "fingerprint": "43:f8:8e:3d:2d:af:83:df:4d:e4:79:1c:d7:9e:2d:e7",
            "id": 512201,
            "name": "Key 13",
            "public_key": "ssh-rsa AEXAMPLEeXeMoHLeyWdgfvAcG/cJRagNoXaXC+jjKwNETUGzjuVrMqydVSwBPuFihL/BEHwXbJFlDUJMhgAcCNkV+raRzGTOxVHBmvgXOphXuKraBQMQ example-12"
        },
        {
            "fingerprint": "89:7e:6f:9a:44:be:66:b6:9f:8b:4f:0b:ec:95:d4:58",
            "id": 512202,
            "name": "Key 14",
            "public_key": "ssh-rsa AEXAMPLElCxT+VhSiimPnIfoCCRFVvZUQQgO+FQYrkAJwQsjkCFOYPjRvufJLZLreHSxsTWtM/OzjWIQgbaRTaY+TZbmXUNIYTedjidWh+EShiKThlrP example-13"
        },
        {
            "fingerprint": "9c:fb:7a:30:43:e7:6d:a4:01:e7:93:d4:3d:d3:72:66",
            "id": 512203,
            "name": "Key 15",
            "public_key": "ssh-rsa AEXAMPLESwnjRxbuloLTclhGhmSFwJT+WsQKlBpUhbXkWDvluXxhJWZoqfjKYxJnBhiI/IsrHdeUe+VGhWBxIhfYQDQ+TblRTtGUOOkUMdedJNt/DZpc example-14"
        },
        {
            "fingerprint": "09:b0:03:c1:64:21:00:64:7c:c7:af:38:49:f0:87:e1",
            "id": 512204,
            "name": "Key 16",
            "public_key": "ssh-rsa AEXAMPLEaAdwlxRStrSdqNN+TyjY/qynaBaq/XGAeXcMdGXrbdLTV/zUljvJqgwPibiybeBYSbtWzmGDecGfxwChjzRhrYMzH/FdjVDzKqRwqwcWBYFz example-15"
        },
        {
            "fingerprint": "fb:30:b4:00:ed:73:f7:2e:35:c3:b2:57:ba:9b:8d:a9",
            "id": 512205,
            "name": "Key 17",
            "public_key": "ssh-rsa AEXAMPLENBwXvMLfXdovKATwlWrjovssbSiCWAQR/hbFOIPXRwyAeT/lpHywEDWgS+DSNUWc/vNR+hyVByadLXJhFRfKl/DUeUk+f+fpzfzhzwgdSyCH example-16"
        },
        {
            "fingerprint": "24:bf:32:f1:09:41:87:8e:a9:98:8b:89:55:71:58:0a",
            "id": 512206,
            "name": "Key 18",
            "public_key": "ssh-rsa AEXAMPLEyAbf/LsCTaeKhsIXyxTKmqlvolUZsHEmxXcDYOatLDnZmP/RQQMq+VkaNGgS+EGoZnSSAkqrcABluiiwADMIAjUqABmmEFMhmqp+JqsAcVgX example-17"
        },
        {
            "fingerprint": "40:85:d0:2b:c0:df:de:cd:07:59:b7:0f:9b:d0:5a:d0",
            "id": 512207,
            "name": "Key 19",
            "public_key": "ssh-rsa AEXAMPLEzUVVeSZrQSueyEpAlHKYzeZg/yOTeaWIreERZeThGWLnwyLhtbQsCgnztEaNvz/NdNouiiqjcPzc/gyJjaWeOE/xkAka/WWlUnrrayFdfNWi example-18"
        },
        {
            "fingerprint": "92:63:d3:e9:0e:df:0e:34:06:b8:ba:f6:77:80:99:bf",
            "id": 512208,
            "name": "Key 20",
            "public_key": "ssh-rsa AEXAMPLENNpmMHTaedGM/iafmabQsPlUTIZdutU/sKcDxrBzqPi+ooFvwXbJBroXuUuccd/YnFsFIYhFSKoDrS+qAM//pKGwvwZiZec/jT/CTIdFPbfv example-19"
        }
    ]
}